com/innersource/demo/application/domain/UserLoginRequest.class
com/innersource/demo/application/domain/UserLoginResponse.class
com/innersource/demo/application/domain/UserRegistrationDto.class
com/innersource/demo/application/domain/MessageDTO.class
com/innersource/demo/application/domain/UserRegistrationRequest.class
