-------------------------------------------------------------------------------
Test set: com.innersource.demo.application.web.controller.UserRegistrationControllerTest
-------------------------------------------------------------------------------
Tests run: 11, Failures: 0, Errors: 0, Skipped: 0, Time elapsed: 3.656 sec
